%YAML 1.1
%TAG !u! tag:unity3d.com,2011:
--- !u!114 &11400000
MonoBehaviour:
  m_ObjectHideFlags: 0
  m_CorrespondingSourceObject: {fileID: 0}
  m_PrefabInstance: {fileID: 0}
  m_PrefabAsset: {fileID: 0}
  m_GameObject: {fileID: 0}
  m_Enabled: 1
  m_EditorHideFlags: 0
  m_Script: {fileID: 0}
  m_Name: GroundSlamAbility
  m_EditorClassIdentifier: Assembly-CSharp::GroundSlamAbility
  BaseDamage: 0
  BerserkDamageMultipler: 0
  CooldownTime: 0
  UsingAbility: 0
  OnCooldown: 0
  IsUnlocked: 0
  GroundSlamRadius: 0
  BlastForce: 0
