%YAML 1.1
%TAG !u! tag:unity3d.com,2011:
--- !u!1 &8168609782099284744
GameObject:
  m_ObjectHideFlags: 0
  m_CorrespondingSourceObject: {fileID: 0}
  m_PrefabInstance: {fileID: 0}
  m_PrefabAsset: {fileID: 0}
  serializedVersion: 6
  m_Component:
  - component: {fileID: 8168609782098857768}
  - component: {fileID: 8168609782102281992}
  - component: {fileID: 8168609782101282248}
  - component: {fileID: 5749114836698337636}
  m_Layer: 0
  m_Name: PotionBox1
  m_TagString: Untagged
  m_Icon: {fileID: 0}
  m_NavMeshLayer: 0
  m_StaticEditorFlags: 0
  m_IsActive: 1
--- !u!4 &8168609782098857768
Transform:
  m_ObjectHideFlags: 0
  m_CorrespondingSourceObject: {fileID: 0}
  m_PrefabInstance: {fileID: 0}
  m_PrefabAsset: {fileID: 0}
  m_GameObject: {fileID: 8168609782099284744}
  m_LocalRotation: {x: 0, y: -0, z: -0, w: 1}
  m_LocalPosition: {x: 30.683792, y: -0.19813828, z: 80.22223}
  m_LocalScale: {x: 1, y: 1, z: 1}
  m_Children: []
  m_Father: {fileID: 0}
  m_RootOrder: 0
  m_LocalEulerAnglesHint: {x: 0, y: 0, z: 0}
--- !u!33 &8168609782102281992
MeshFilter:
  m_ObjectHideFlags: 0
  m_CorrespondingSourceObject: {fileID: 0}
  m_PrefabInstance: {fileID: 0}
  m_PrefabAsset: {fileID: 0}
  m_GameObject: {fileID: 8168609782099284744}
  m_Mesh: {fileID: 4300000, guid: d32b40bfada6e6748bdb9205e51f18b4, type: 3}
--- !u!23 &8168609782101282248
MeshRenderer:
  m_ObjectHideFlags: 0
  m_CorrespondingSourceObject: {fileID: 0}
  m_PrefabInstance: {fileID: 0}
  m_PrefabAsset: {fileID: 0}
  m_GameObject: {fileID: 8168609782099284744}
  m_Enabled: 1
  m_CastShadows: 1
  m_ReceiveShadows: 1
  m_DynamicOccludee: 1
  m_MotionVectors: 1
  m_LightProbeUsage: 1
  m_ReflectionProbeUsage: 1
  m_RenderingLayerMask: 1
  m_RendererPriority: 0
  m_Materials:
  - {fileID: 2100000, guid: d32b40bfada6e6748bdb9205e51f18b4, type: 3}
  - {fileID: 2100002, guid: d32b40bfada6e6748bdb9205e51f18b4, type: 3}
  - {fileID: 2100004, guid: d32b40bfada6e6748bdb9205e51f18b4, type: 3}
  - {fileID: 2100008, guid: d32b40bfada6e6748bdb9205e51f18b4, type: 3}
  - {fileID: 2100006, guid: d32b40bfada6e6748bdb9205e51f18b4, type: 3}
  - {fileID: 2100010, guid: d32b40bfada6e6748bdb9205e51f18b4, type: 3}
  - {fileID: 2100012, guid: d32b40bfada6e6748bdb9205e51f18b4, type: 3}
  - {fileID: 2100014, guid: d32b40bfada6e6748bdb9205e51f18b4, type: 3}
  - {fileID: 2100016, guid: d32b40bfada6e6748bdb9205e51f18b4, type: 3}
  - {fileID: 2100018, guid: d32b40bfada6e6748bdb9205e51f18b4, type: 3}
  m_StaticBatchInfo:
    firstSubMesh: 0
    subMeshCount: 0
  m_StaticBatchRoot: {fileID: 0}
  m_ProbeAnchor: {fileID: 0}
  m_LightProbeVolumeOverride: {fileID: 0}
  m_ScaleInLightmap: 1
  m_PreserveUVs: 0
  m_IgnoreNormalsForChartDetection: 0
  m_ImportantGI: 0
  m_StitchLightmapSeams: 0
  m_SelectedEditorRenderState: 3
  m_MinimumChartSize: 4
  m_AutoUVMaxDistance: 0.5
  m_AutoUVMaxAngle: 89
  m_LightmapParameters: {fileID: 0}
  m_SortingLayerID: 0
  m_SortingLayer: 0
  m_SortingOrder: 0
--- !u!64 &5749114836698337636
MeshCollider:
  m_ObjectHideFlags: 0
  m_CorrespondingSourceObject: {fileID: 0}
  m_PrefabInstance: {fileID: 0}
  m_PrefabAsset: {fileID: 0}
  m_GameObject: {fileID: 8168609782099284744}
  m_Material: {fileID: 0}
  m_IsTrigger: 0
  m_Enabled: 1
  serializedVersion: 3
  m_Convex: 0
  m_CookingOptions: 14
  m_Mesh: {fileID: 4300000, guid: d32b40bfada6e6748bdb9205e51f18b4, type: 3}
