%YAML 1.1
%TAG !u! tag:unity3d.com,2011:
--- !u!1 &132111015294318486
GameObject:
  m_ObjectHideFlags: 0
  m_CorrespondingSourceObject: {fileID: 0}
  m_PrefabInstance: {fileID: 0}
  m_PrefabAsset: {fileID: 0}
  serializedVersion: 6
  m_Component:
  - component: {fileID: 132111015294318480}
  - component: {fileID: 132111015294318481}
  m_Layer: 0
  m_Name: Wave Manager
  m_TagString: Untagged
  m_Icon: {fileID: 0}
  m_NavMeshLayer: 0
  m_StaticEditorFlags: 0
  m_IsActive: 1
--- !u!4 &132111015294318480
Transform:
  m_ObjectHideFlags: 0
  m_CorrespondingSourceObject: {fileID: 0}
  m_PrefabInstance: {fileID: 0}
  m_PrefabAsset: {fileID: 0}
  m_GameObject: {fileID: 132111015294318486}
  m_LocalRotation: {x: 0, y: 0, z: 0, w: 1}
  m_LocalPosition: {x: 0.106101036, y: 0.234766, z: -10.444078}
  m_LocalScale: {x: 1, y: 1, z: 1}
  m_Children: []
  m_Father: {fileID: 0}
  m_RootOrder: 0
  m_LocalEulerAnglesHint: {x: 0, y: 0, z: 0}
--- !u!114 &132111015294318481
MonoBehaviour:
  m_ObjectHideFlags: 0
  m_CorrespondingSourceObject: {fileID: 0}
  m_PrefabInstance: {fileID: 0}
  m_PrefabAsset: {fileID: 0}
  m_GameObject: {fileID: 132111015294318486}
  m_Enabled: 1
  m_EditorHideFlags: 0
  m_Script: {fileID: 11500000, guid: 2bfc0ea2a3b899449a3e4a2d8f9f25aa, type: 3}
  m_Name: 
  m_EditorClassIdentifier: 
  totalEnemiesSpawned: 0
  waveNumber: 0
  LevelStartTimer: 0
  MaxCorpseLimit: 20
  EnemySpawnNum: 100
  MinSpawnDelay: 0.88
  MaxSpawnDelay: 1.31
  LevelStartWaitTime: 5
  LevelMidWaitTime: 10
  MaxEnemies: 5000
  MaxEnemiesOnScreen: 30
  EnemyFrameSpawnCount: 2
  SpawnLocations:
  - {fileID: 0}
  - {fileID: 0}
  EnemyData:
  - {fileID: 11400000, guid: c13a071b707f001458efcbe502762ca0, type: 2}
  - {fileID: 11400000, guid: 9e1582405122013448b837f52899907c, type: 2}
  - {fileID: 11400000, guid: 9a708f968a60e2f418af35e8c731c06e, type: 2}
  - {fileID: 11400000, guid: 58d7dd9a8a1c347419fb364befe4c0f7, type: 2}
  - {fileID: 11400000, guid: 1e1384580045b884f8f0937fabb67028, type: 2}
  IntervalClasses:
  - dataContainer: {fileID: 11400000, guid: c13a071b707f001458efcbe502762ca0, type: 2}
    spawnInterval: 3
